Using tidy
…
emptydata <- Data(doseGrid = c(1, 3, 5, 10, 15, 20, 25, 40, 50, 80, 100))

model <- LogisticLogNormal(
  mean = c(-0.85, 1),
  cov =
    matrix(c(1, -0.5, -0.5, 1),
      nrow = 2
    ),
  ref_dose = 56
)
samples <- mcmc(emptydata, model, options)
tidySamples <- samples %>% tidy()
tidySamples %>% head()
#> $data
#> # A tibble: 2,000 × 10
#>    Iteration Chain alpha0 alpha1 nChains nParameters nIterations nBurnin nThin
#>        <int> <int>  <dbl>  <dbl>   <int>       <int>       <int>   <int> <int>
#>  1         1     1 -1.56   3.06        1           1        2100     100     1
#>  2         2     1 -0.873  8.39        1           1        2100     100     1
#>  3         3     1 -1.44  17.2         1           1        2100     100     1
#>  4         4     1  1.59   1.49        1           1        2100     100     1
#>  5         5     1 -0.908  2.72        1           1        2100     100     1
#>  6         6     1 -0.403  0.883       1           1        2100     100     1
#>  7         7     1 -1.46   2.08        1           1        2100     100     1
#>  8         8     1  0.156  0.438       1           1        2100     100     1
#>  9         9     1  0.736  0.824       1           1        2100     100     1
#> 10        10     1 -1.98   3.57        1           1        2100     100     1
#> # ℹ 1,990 more rows
#> # ℹ 1 more variable: parallel <lgl>
…
